{
    "relationships": [],
    "fields": [
        {
            "fieldName": "courseCathegory",
            "fieldType": "String"
        },
        {
            "fieldName": "courseName",
            "fieldType": "String"
        },
        {
            "fieldName": "coursePath",
            "fieldType": "String"
        },
        {
            "fieldName": "courseDescription",
            "fieldType": "String"
        }
    ],
    "changelogDate": "20160404142446",
    "dto": "no",
    "service": "no",
    "entityTableName": "video",
    "pagination": "pager"
}
